<?xml version="1.0" encoding="UTF-8"?>
<svg width="125px" height="125px" viewBox="0 0 125 125" version="1.1" xmlns="http://www.w3.org/2000/svg" xmlns:xlink="http://www.w3.org/1999/xlink">
    <!-- Generator: Sketch 63.1 (92452) - https://sketch.com -->
    <title>history</title>
    <desc>Created with Sketch.</desc>
    <g id="history" stroke="none" stroke-width="1" fill="none" fill-rule="evenodd">
        <g id="Group" transform="translate(17.000000, 1.000000)" fill-rule="nonzero" stroke="#8A4222" stroke-width="0.75">
            <path d="M88.1570179,7.79867979 L75.1945343,0.207642575 C75.0842623,0.142483457 74.9574494,0.185922869 74.8361501,0.15334331 C74.6872828,0.109903898 74.5494426,-0.00955448459 74.4116025,0.0006109102 L1.3012106,4.01945096 C0.573414839,4.05746045 0,4.65475236 0,5.37693258 L0,116.418929 C0,117.130249 0.556874026,117.722111 1.27915618,117.770981 L57.1595349,121.756547 L66.6098526,122.440718 C66.6484478,122.446147 66.6815294,122.446147 66.7146111,122.446147 C66.7201247,122.446147 66.7256383,122.440718 66.7311519,122.440718 L74.3950617,122.98914 C74.4226297,122.99457 74.4501978,122.99457 74.4777658,122.99457 C74.4832794,122.99457 74.488793,123 74.488793,123 C74.8030684,123 75.1118303,122.891401 75.3709697,122.679634 L89.171521,111.325658 C90.968956,109.848718 92,107.676747 92,105.374459 L92,14.4611996 C92,11.7353765 90.5223541,9.18331105 88.1570179,7.79867979 Z M73.1103919,15.17252 L66.5933118,15.5308951 L66.5933118,8.59144906 C66.5933118,8.21678413 66.4389308,7.86383891 66.1632506,7.60320244 C65.8820568,7.3479959 65.545727,7.21224773 65.1377202,7.23396744 L36.9742299,8.743487 C36.2464341,8.78149649 35.6730193,9.3787884 35.6730193,10.1009686 L35.6730193,17.2250322 L27.2978545,17.6865759 L27.2978545,5.31177347 L73.1103919,2.79228758 L73.1103919,15.17252 Z M63.8365096,15.682933 L38.4298214,17.0784241 L38.4298214,11.3878612 L63.8365096,10.0249497 L63.8365096,15.682933 Z M24.5410524,5.46381141 L24.5410524,17.8386139 L2.75680211,19.0386276 L2.75680211,6.65839523 L24.5410524,5.46381141 Z M49.2916217,118.466011 L49.2916217,111.472266 C49.2916217,109.951887 50.5542371,108.708434 52.1035599,108.708434 L62.5352991,108.708434 C64.0791082,108.708434 65.3417236,109.951887 65.3417236,111.472266 L65.3417236,119.617156 L57.6833273,119.068733 L49.2916217,118.466011 Z M68.0930121,119.818063 L68.0930121,111.472266 C68.0930121,108.447797 65.600863,105.99347 62.5297854,105.99347 L52.0980463,105.99347 C49.0269687,105.99347 46.529306,108.447797 46.529306,111.472266 L46.529306,118.281394 L2.75680211,115.159186 L2.75680211,21.7535908 L25.842263,20.4829881 C25.869831,20.4829881 25.8863718,20.5155676 25.9139398,20.5155676 C25.9525351,20.5155676 25.9745895,20.4775581 26.0131847,20.4775581 L37.0403931,19.8694064 C37.0459067,19.8694064 37.0459067,19.8748363 37.0514204,19.8748363 C37.056934,19.8748363 37.056934,19.8694064 37.0624476,19.8694064 L73.1103919,17.8874832 L73.1103919,120.171008 L68.0930121,119.818063 Z M89.2431979,105.374459 C89.2431979,106.867688 88.5760518,108.279469 87.4071677,109.245996 L75.8671941,118.737508 L75.8671941,3.75881449 L86.7455352,10.1335482 C88.2838308,11.034916 89.2431979,12.6910436 89.2431979,14.4611996 L89.2431979,105.374459 Z" id="Shape"></path>
            <path d="M38.5,29.375 C47.6341499,29.375 55.9147589,33.0897852 61.9121633,39.0871895 C67.9104635,45.0854898 71.625,53.3672074 71.625,62.5 C71.625,71.63211 67.9096439,79.9132646 61.9114542,85.9114542 C55.9132646,91.9096439 47.63211,95.625 38.5,95.625 C29.36789,95.625 21.0867354,91.9096439 15.0885458,85.9114542 C9.09035613,79.9132646 5.375,71.63211 5.375,62.5 C5.375,53.36789 9.09035613,45.0867354 15.0885458,39.0885458 C21.0867354,33.0903561 29.36789,29.375 38.5,29.375 Z M38.5,31.3785755 C29.9183355,31.3785755 22.1378968,34.86796 16.5029284,40.5029284 C10.86796,46.1378968 7.37857554,53.9183355 7.37857554,62.5 C7.37857554,71.0795718 10.868508,78.8605861 16.5042847,84.4963628 C22.1391482,90.1312263 29.9190302,93.6214245 38.5,93.6214245 C47.0788774,93.6214245 54.8593347,90.1306781 60.4950064,84.4950064 C66.1306781,78.8593347 69.6214245,71.0788774 69.6214245,62.5 C69.6214245,53.9190302 66.1312263,46.1391482 60.4963628,40.5042847 C54.8605861,34.868508 47.0795718,31.3785755 38.5,31.3785755 Z" id="Shape"></path>
            <path d="M38,36.375 C45.3429831,36.375 52.0006495,39.2502736 56.822536,43.8935716 C61.6401461,48.5327518 64.625,54.937353 64.625,62 C64.625,69.0647235 61.6407556,75.4687716 56.8239753,80.1071526 C52.0019709,84.7505643 45.3437067,87.625 38,87.625 C30.6584528,87.625 23.9996122,84.7499785 19.1767769,80.1057667 C14.3601148,75.4674995 11.375,69.0640279 11.375,62 C11.375,54.9380485 14.3607245,48.5340239 19.1782163,43.8949577 C24.0009336,39.2508596 30.6591761,36.375 38,36.375 Z M38,38.4388528 C31.2593018,38.4388528 25.1480796,41.079564 20.7217025,45.3420011 C16.290101,49.6094692 13.5470779,55.5019644 13.5470779,62 C13.5470779,68.495887 16.2906783,74.3889763 20.7231421,78.6572748 C25.1494085,82.9196054 31.2600404,85.5611472 38,85.5611472 C44.7406982,85.5611472 50.8519204,82.920436 55.2782975,78.6579989 C59.709899,74.3905308 62.4529221,68.4980356 62.4529221,62 C62.4529221,55.5026768 59.7090367,49.6107492 55.2775456,45.3433874 C50.8503075,41.0801211 44.7384704,38.4388528 38,38.4388528 Z" id="Shape"></path>
        </g>
    </g>
</svg>